# Blender MTL File: 'creature.blend'
# Material Count: 5

newmtl Material.001
Ns 421.878558
Ka 0.333333 0.333333 0.333333
Kd 0.237117 0.427418 0.800000
Ks 0.531746 0.531746 0.531746
Ke 0.000000 0.000000 0.000000
Ni 1.000000
d 1.000000
illum 3

newmtl Material.005
Ns 323.999994
Ka 0.873016 0.873016 0.873016
Kd 0.000000 0.000000 0.000000
Ks 0.500000 0.500000 0.500000
Ke 0.000000 0.000000 0.000000
Ni 1.000000
d 1.000000
illum 3

newmtl Material.008
Ns 323.999994
Ka 0.275132 0.275132 0.275132
Kd 0.000000 0.000000 0.000000
Ks 0.500000 0.500000 0.500000
Ke 0.000000 0.000000 0.000000
Ni 1.000000
d 1.000000
illum 3

newmtl Material.009
Ns 323.999994
Ka 1.000000 1.000000 1.000000
Kd 1.000000 0.933513 0.962621
Ks 0.500000 0.500000 0.500000
Ke 0.000000 0.000000 0.000000
Ni 1.000000
d 1.000000
illum 2

newmtl Material.010
Ns 0.000000
Ka 1.000000 1.000000 1.000000
Kd 0.1 0.25 0.8
Ks 0.5 0.5 0.5
Ke 0.000000 0.000000 0.000000
Ni 1.000000
d 1.000000
illum 2
